2018-01-01,RU,1111111,100,0.25
2018-01-01,RU,1111111,100,0.25
2018-01-01,RU,1111111,100,0.25
2018-01-01,RU,1111111,100,0.25
2018-01-01,RU,1111111,100,0.25
2018-01-01,RU,1111111,100,0.25
2018-01-01,RU,1111111,100,0.25
2018-01-01,RU,1111111,100,0.25
2018-01-01,RU,1111111,100,0.25